%YAML 1.1
%TAG !u! tag:unity3d.com,2011:
--- !u!1001 &4215709436088055387
PrefabInstance:
  m_ObjectHideFlags: 0
  serializedVersion: 2
  m_Modification:
    m_TransformParent: {fileID: 0}
    m_Modifications:
    - target: {fileID: 1298461948701128039, guid: 6771aca361771174d84e8649066afd66, type: 3}
      propertyPath: m_LocalPosition.x
      value: 0
      objectReference: {fileID: 0}
    - target: {fileID: 1298461948701128039, guid: 6771aca361771174d84e8649066afd66, type: 3}
      propertyPath: m_LocalPosition.y
      value: 0
      objectReference: {fileID: 0}
    - target: {fileID: 1298461948701128039, guid: 6771aca361771174d84e8649066afd66, type: 3}
      propertyPath: m_LocalPosition.z
      value: 0
      objectReference: {fileID: 0}
    - target: {fileID: 1298461948701128039, guid: 6771aca361771174d84e8649066afd66, type: 3}
      propertyPath: m_LocalRotation.x
      value: 0
      objectReference: {fileID: 0}
    - target: {fileID: 1298461948701128039, guid: 6771aca361771174d84e8649066afd66, type: 3}
      propertyPath: m_LocalRotation.y
      value: 0
      objectReference: {fileID: 0}
    - target: {fileID: 1298461948701128039, guid: 6771aca361771174d84e8649066afd66, type: 3}
      propertyPath: m_LocalRotation.z
      value: 0
      objectReference: {fileID: 0}
    - target: {fileID: 1298461948701128039, guid: 6771aca361771174d84e8649066afd66, type: 3}
      propertyPath: m_LocalRotation.w
      value: 1
      objectReference: {fileID: 0}
    - target: {fileID: 1298461948701128039, guid: 6771aca361771174d84e8649066afd66, type: 3}
      propertyPath: m_RootOrder
      value: 0
      objectReference: {fileID: 0}
    - target: {fileID: 1298461948701128039, guid: 6771aca361771174d84e8649066afd66, type: 3}
      propertyPath: m_LocalEulerAnglesHint.x
      value: 0
      objectReference: {fileID: 0}
    - target: {fileID: 1298461948701128039, guid: 6771aca361771174d84e8649066afd66, type: 3}
      propertyPath: m_LocalEulerAnglesHint.y
      value: 0
      objectReference: {fileID: 0}
    - target: {fileID: 1298461948701128039, guid: 6771aca361771174d84e8649066afd66, type: 3}
      propertyPath: m_LocalEulerAnglesHint.z
      value: 0
      objectReference: {fileID: 0}
    - target: {fileID: 1298461948701128039, guid: 6771aca361771174d84e8649066afd66, type: 3}
      propertyPath: m_AnchoredPosition.x
      value: 228
      objectReference: {fileID: 0}
    - target: {fileID: 1298461948701128039, guid: 6771aca361771174d84e8649066afd66, type: 3}
      propertyPath: m_AnchoredPosition.y
      value: 128
      objectReference: {fileID: 0}
    - target: {fileID: 1298461948701128039, guid: 6771aca361771174d84e8649066afd66, type: 3}
      propertyPath: m_SizeDelta.x
      value: 35
      objectReference: {fileID: 0}
    - target: {fileID: 1298461948701128039, guid: 6771aca361771174d84e8649066afd66, type: 3}
      propertyPath: m_SizeDelta.y
      value: 35
      objectReference: {fileID: 0}
    - target: {fileID: 1298461948701128039, guid: 6771aca361771174d84e8649066afd66, type: 3}
      propertyPath: m_AnchorMin.x
      value: 0.5
      objectReference: {fileID: 0}
    - target: {fileID: 1298461948701128039, guid: 6771aca361771174d84e8649066afd66, type: 3}
      propertyPath: m_AnchorMin.y
      value: 0.5
      objectReference: {fileID: 0}
    - target: {fileID: 1298461948701128039, guid: 6771aca361771174d84e8649066afd66, type: 3}
      propertyPath: m_AnchorMax.x
      value: 0.5
      objectReference: {fileID: 0}
    - target: {fileID: 1298461948701128039, guid: 6771aca361771174d84e8649066afd66, type: 3}
      propertyPath: m_AnchorMax.y
      value: 0.5
      objectReference: {fileID: 0}
    - target: {fileID: 1298461948701128039, guid: 6771aca361771174d84e8649066afd66, type: 3}
      propertyPath: m_Pivot.x
      value: 1
      objectReference: {fileID: 0}
    - target: {fileID: 1298461948701128039, guid: 6771aca361771174d84e8649066afd66, type: 3}
      propertyPath: m_Pivot.y
      value: 1
      objectReference: {fileID: 0}
    - target: {fileID: 1019286472509958403, guid: 6771aca361771174d84e8649066afd66, type: 3}
      propertyPath: m_Name
      value: Decision Pass
      objectReference: {fileID: 0}
    - target: {fileID: 6244250651512020025, guid: 6771aca361771174d84e8649066afd66, type: 3}
      propertyPath: m_Color.r
      value: 0
      objectReference: {fileID: 0}
    - target: {fileID: 6244250651512020025, guid: 6771aca361771174d84e8649066afd66, type: 3}
      propertyPath: m_Color.g
      value: 0.80485034
      objectReference: {fileID: 0}
    - target: {fileID: 6244250651512020025, guid: 6771aca361771174d84e8649066afd66, type: 3}
      propertyPath: m_Color.b
      value: 1
      objectReference: {fileID: 0}
    - target: {fileID: 985095515884143791, guid: 6771aca361771174d84e8649066afd66, type: 3}
      propertyPath: m_Sprite
      value: 
      objectReference: {fileID: 21300000, guid: 84f29fbfc555b774396f4ed9c438d5a4, type: 3}
    m_RemovedComponents: []
  m_SourcePrefab: {fileID: 100100000, guid: 6771aca361771174d84e8649066afd66, type: 3}
