%YAML 1.1
%TAG !u! tag:unity3d.com,2011:
--- !u!1001 &4900571473901748259
PrefabInstance:
  m_ObjectHideFlags: 0
  serializedVersion: 2
  m_Modification:
    m_TransformParent: {fileID: 0}
    m_Modifications:
    - target: {fileID: 1298461948701128039, guid: 6771aca361771174d84e8649066afd66, type: 3}
      propertyPath: m_LocalPosition.x
      value: 0
      objectReference: {fileID: 0}
    - target: {fileID: 1298461948701128039, guid: 6771aca361771174d84e8649066afd66, type: 3}
      propertyPath: m_LocalPosition.y
      value: 0
      objectReference: {fileID: 0}
    - target: {fileID: 1298461948701128039, guid: 6771aca361771174d84e8649066afd66, type: 3}
      propertyPath: m_LocalPosition.z
      value: 0
      objectReference: {fileID: 0}
    - target: {fileID: 1298461948701128039, guid: 6771aca361771174d84e8649066afd66, type: 3}
      propertyPath: m_LocalRotation.x
      value: 0
      objectReference: {fileID: 0}
    - target: {fileID: 1298461948701128039, guid: 6771aca361771174d84e8649066afd66, type: 3}
      propertyPath: m_LocalRotation.y
      value: 0
      objectReference: {fileID: 0}
    - target: {fileID: 1298461948701128039, guid: 6771aca361771174d84e8649066afd66, type: 3}
      propertyPath: m_LocalRotation.z
      value: 0
      objectReference: {fileID: 0}
    - target: {fileID: 1298461948701128039, guid: 6771aca361771174d84e8649066afd66, type: 3}
      propertyPath: m_LocalRotation.w
      value: 1
      objectReference: {fileID: 0}
    - target: {fileID: 1298461948701128039, guid: 6771aca361771174d84e8649066afd66, type: 3}
      propertyPath: m_RootOrder
      value: 0
      objectReference: {fileID: 0}
    - target: {fileID: 1298461948701128039, guid: 6771aca361771174d84e8649066afd66, type: 3}
      propertyPath: m_LocalEulerAnglesHint.x
      value: 0
      objectReference: {fileID: 0}
    - target: {fileID: 1298461948701128039, guid: 6771aca361771174d84e8649066afd66, type: 3}
      propertyPath: m_LocalEulerAnglesHint.y
      value: 0
      objectReference: {fileID: 0}
    - target: {fileID: 1298461948701128039, guid: 6771aca361771174d84e8649066afd66, type: 3}
      propertyPath: m_LocalEulerAnglesHint.z
      value: 0
      objectReference: {fileID: 0}
    - target: {fileID: 1298461948701128039, guid: 6771aca361771174d84e8649066afd66, type: 3}
      propertyPath: m_AnchoredPosition.x
      value: 228
      objectReference: {fileID: 0}
    - target: {fileID: 1298461948701128039, guid: 6771aca361771174d84e8649066afd66, type: 3}
      propertyPath: m_AnchoredPosition.y
      value: 128
      objectReference: {fileID: 0}
    - target: {fileID: 1298461948701128039, guid: 6771aca361771174d84e8649066afd66, type: 3}
      propertyPath: m_SizeDelta.x
      value: 35
      objectReference: {fileID: 0}
    - target: {fileID: 1298461948701128039, guid: 6771aca361771174d84e8649066afd66, type: 3}
      propertyPath: m_SizeDelta.y
      value: 35
      objectReference: {fileID: 0}
    - target: {fileID: 1298461948701128039, guid: 6771aca361771174d84e8649066afd66, type: 3}
      propertyPath: m_AnchorMin.x
      value: 0.5
      objectReference: {fileID: 0}
    - target: {fileID: 1298461948701128039, guid: 6771aca361771174d84e8649066afd66, type: 3}
      propertyPath: m_AnchorMin.y
      value: 0.5
      objectReference: {fileID: 0}
    - target: {fileID: 1298461948701128039, guid: 6771aca361771174d84e8649066afd66, type: 3}
      propertyPath: m_AnchorMax.x
      value: 0.5
      objectReference: {fileID: 0}
    - target: {fileID: 1298461948701128039, guid: 6771aca361771174d84e8649066afd66, type: 3}
      propertyPath: m_AnchorMax.y
      value: 0.5
      objectReference: {fileID: 0}
    - target: {fileID: 1298461948701128039, guid: 6771aca361771174d84e8649066afd66, type: 3}
      propertyPath: m_Pivot.x
      value: 1
      objectReference: {fileID: 0}
    - target: {fileID: 1298461948701128039, guid: 6771aca361771174d84e8649066afd66, type: 3}
      propertyPath: m_Pivot.y
      value: 1
      objectReference: {fileID: 0}
    - target: {fileID: 1019286472509958403, guid: 6771aca361771174d84e8649066afd66, type: 3}
      propertyPath: m_Name
      value: Decision Buy
      objectReference: {fileID: 0}
    - target: {fileID: 985095515884143791, guid: 6771aca361771174d84e8649066afd66, type: 3}
      propertyPath: m_Sprite
      value: 
      objectReference: {fileID: 21300000, guid: fcd1d81feb74bc7429c349d55a9bf39e, type: 3}
    - target: {fileID: 6244250651512020025, guid: 6771aca361771174d84e8649066afd66, type: 3}
      propertyPath: m_Color.g
      value: 0
      objectReference: {fileID: 0}
    - target: {fileID: 6244250651512020025, guid: 6771aca361771174d84e8649066afd66, type: 3}
      propertyPath: m_Color.b
      value: 0.27701235
      objectReference: {fileID: 0}
    - target: {fileID: 6244250651512020025, guid: 6771aca361771174d84e8649066afd66, type: 3}
      propertyPath: m_Color.r
      value: 1
      objectReference: {fileID: 0}
    m_RemovedComponents: []
  m_SourcePrefab: {fileID: 100100000, guid: 6771aca361771174d84e8649066afd66, type: 3}
