%YAML 1.1
%TAG !u! tag:unity3d.com,2011:
--- !u!1 &8532458317756606050 stripped
GameObject:
  m_CorrespondingSourceObject: {fileID: 7154581897461479082, guid: 374ad88c6f4ce9f4b9507228bc6b2409, type: 3}
  m_PrefabInstance: {fileID: 1523149018305401032}
  m_PrefabAsset: {fileID: 0}
--- !u!114 &148309750414935221 stripped
MonoBehaviour:
  m_CorrespondingSourceObject: {fileID: 1670176961498027133, guid: 374ad88c6f4ce9f4b9507228bc6b2409, type: 3}
  m_PrefabInstance: {fileID: 1523149018305401032}
  m_PrefabAsset: {fileID: 0}
  m_GameObject: {fileID: 8532458317756606050}
  m_Enabled: 1
  m_EditorHideFlags: 0
  m_Script: {fileID: 11500000, guid: 4093dad6b4814f544ab8a77f07ff1620, type: 3}
  m_Name: 
  m_EditorClassIdentifier: 
--- !u!114 &2968202457144678376
MonoBehaviour:
  m_ObjectHideFlags: 0
  m_CorrespondingSourceObject: {fileID: 0}
  m_PrefabInstance: {fileID: 0}
  m_PrefabAsset: {fileID: 0}
  m_GameObject: {fileID: 8532458317756606050}
  m_Enabled: 1
  m_EditorHideFlags: 0
  m_Script: {fileID: 11500000, guid: ec346e28b15845742812fda8e3288b72, type: 3}
  m_Name: 
  m_EditorClassIdentifier: 
  m_Card: {fileID: 148309750414935221}
  type: 0
--- !u!1001 &1523149018305401032
PrefabInstance:
  m_ObjectHideFlags: 0
  serializedVersion: 2
  m_Modification:
    m_TransformParent: {fileID: 0}
    m_Modifications:
    - target: {fileID: 7154581897461479085, guid: 374ad88c6f4ce9f4b9507228bc6b2409, type: 3}
      propertyPath: m_LocalPosition.x
      value: 0
      objectReference: {fileID: 0}
    - target: {fileID: 7154581897461479085, guid: 374ad88c6f4ce9f4b9507228bc6b2409, type: 3}
      propertyPath: m_LocalPosition.y
      value: 0
      objectReference: {fileID: 0}
    - target: {fileID: 7154581897461479085, guid: 374ad88c6f4ce9f4b9507228bc6b2409, type: 3}
      propertyPath: m_LocalPosition.z
      value: 0
      objectReference: {fileID: 0}
    - target: {fileID: 7154581897461479085, guid: 374ad88c6f4ce9f4b9507228bc6b2409, type: 3}
      propertyPath: m_LocalRotation.x
      value: 0
      objectReference: {fileID: 0}
    - target: {fileID: 7154581897461479085, guid: 374ad88c6f4ce9f4b9507228bc6b2409, type: 3}
      propertyPath: m_LocalRotation.y
      value: 0
      objectReference: {fileID: 0}
    - target: {fileID: 7154581897461479085, guid: 374ad88c6f4ce9f4b9507228bc6b2409, type: 3}
      propertyPath: m_LocalRotation.z
      value: 0
      objectReference: {fileID: 0}
    - target: {fileID: 7154581897461479085, guid: 374ad88c6f4ce9f4b9507228bc6b2409, type: 3}
      propertyPath: m_LocalRotation.w
      value: 1
      objectReference: {fileID: 0}
    - target: {fileID: 7154581897461479085, guid: 374ad88c6f4ce9f4b9507228bc6b2409, type: 3}
      propertyPath: m_RootOrder
      value: 0
      objectReference: {fileID: 0}
    - target: {fileID: 7154581897461479085, guid: 374ad88c6f4ce9f4b9507228bc6b2409, type: 3}
      propertyPath: m_LocalEulerAnglesHint.x
      value: 0
      objectReference: {fileID: 0}
    - target: {fileID: 7154581897461479085, guid: 374ad88c6f4ce9f4b9507228bc6b2409, type: 3}
      propertyPath: m_LocalEulerAnglesHint.y
      value: 0
      objectReference: {fileID: 0}
    - target: {fileID: 7154581897461479085, guid: 374ad88c6f4ce9f4b9507228bc6b2409, type: 3}
      propertyPath: m_LocalEulerAnglesHint.z
      value: 0
      objectReference: {fileID: 0}
    - target: {fileID: 7154581897461479085, guid: 374ad88c6f4ce9f4b9507228bc6b2409, type: 3}
      propertyPath: m_AnchoredPosition.x
      value: 0
      objectReference: {fileID: 0}
    - target: {fileID: 7154581897461479085, guid: 374ad88c6f4ce9f4b9507228bc6b2409, type: 3}
      propertyPath: m_AnchoredPosition.y
      value: 0
      objectReference: {fileID: 0}
    - target: {fileID: 7154581897461479085, guid: 374ad88c6f4ce9f4b9507228bc6b2409, type: 3}
      propertyPath: m_SizeDelta.x
      value: 75
      objectReference: {fileID: 0}
    - target: {fileID: 7154581897461479085, guid: 374ad88c6f4ce9f4b9507228bc6b2409, type: 3}
      propertyPath: m_SizeDelta.y
      value: 75
      objectReference: {fileID: 0}
    - target: {fileID: 7154581897461479085, guid: 374ad88c6f4ce9f4b9507228bc6b2409, type: 3}
      propertyPath: m_AnchorMin.x
      value: 0
      objectReference: {fileID: 0}
    - target: {fileID: 7154581897461479085, guid: 374ad88c6f4ce9f4b9507228bc6b2409, type: 3}
      propertyPath: m_AnchorMin.y
      value: 0.5
      objectReference: {fileID: 0}
    - target: {fileID: 7154581897461479085, guid: 374ad88c6f4ce9f4b9507228bc6b2409, type: 3}
      propertyPath: m_AnchorMax.x
      value: 0
      objectReference: {fileID: 0}
    - target: {fileID: 7154581897461479085, guid: 374ad88c6f4ce9f4b9507228bc6b2409, type: 3}
      propertyPath: m_AnchorMax.y
      value: 0.5
      objectReference: {fileID: 0}
    - target: {fileID: 7154581897461479085, guid: 374ad88c6f4ce9f4b9507228bc6b2409, type: 3}
      propertyPath: m_Pivot.x
      value: 0
      objectReference: {fileID: 0}
    - target: {fileID: 7154581897461479085, guid: 374ad88c6f4ce9f4b9507228bc6b2409, type: 3}
      propertyPath: m_Pivot.y
      value: 0.5
      objectReference: {fileID: 0}
    - target: {fileID: 7154581897461479082, guid: 374ad88c6f4ce9f4b9507228bc6b2409, type: 3}
      propertyPath: m_Name
      value: PlayerCardUI
      objectReference: {fileID: 0}
    - target: {fileID: 3579595017343113452, guid: 374ad88c6f4ce9f4b9507228bc6b2409, type: 3}
      propertyPath: m_havePropertiesChanged
      value: 0
      objectReference: {fileID: 0}
    - target: {fileID: 3579595017343113452, guid: 374ad88c6f4ce9f4b9507228bc6b2409, type: 3}
      propertyPath: m_isInputParsingRequired
      value: 0
      objectReference: {fileID: 0}
    m_RemovedComponents: []
  m_SourcePrefab: {fileID: 100100000, guid: 374ad88c6f4ce9f4b9507228bc6b2409, type: 3}
